{
  "required": true,
  "minVersion": "0.8",
  "package": "net.talvorgames.timetravelmod.mixin",
  "compatibilityLevel": "JAVA_16",
  "mixins": [
  ],
  "client": [
    "ExampleMixin"
  ],
  "injectors": {
    "defaultRequire": 1
  }
}
